﻿Países,Confirmados
Estados Federados de Micronesia [+],1
Samoa [+],3
Vanuatu [+],4
Islas Marshall [+],4
Islas Salomón [+],20
San Cristóbal y Nieves [+],45
Fiyi [+],140
Granada [+],160
Dominica [+],175
Brunéi [+],230
